<svg xmlns:svg="http://www.w3.org/2000/svg" xmlns="http://www.w3.org/2000/svg" version="1.2" width="100%" viewBox="0 0 271.99121 127.44645">
  <g id="Colors">
    <path d="M 165.29325,52.105 74.98075,76.38625 54.012,87.23 c 30.49309,2.80395 15.40767,14.78042 15.84375,24.625 5.52432,0.5379 14.7315,-1.2287 20.71875,-1.3125 5.98725,-0.0838 7.0691,7.42645 12.5,6.875 5.4309,-0.55145 12.16111,-4.47035 19.21875,-3.4375 7.05763,1.03286 16.74645,4.21521 21.375,0.96875 3.23645,-3.76905 6.29586,-15.47523 21.34375,-16.71875 6.06092,-5.95569 1.40995,-17.35334 15.34375,-21.28125 8.90338,0.73055 7.36897,11.35205 14.1875,11.5625 0.14721,-2.21759 -3.20887,-4.903 -1.8125,-6.375 12.42926,-0.4773 23.45265,12.31758 24.25,10.375 0.79735,-1.94258 -5.02389,-5.43478 -4.8125,-8.375 9.03,-1.24403 14.52732,3.68032 24.15625,1.625 -4.63879,-4.29477 -26.75035,-4.25217 -31.09375,-6.21875 4.9114,-2.13573 20.39676,-0.44857 20.5,-1.6875 -11.84568,-3.95182 -32.17334,0.0261 -36.90625,-4.84375 -4.10399,-3.91454 10.75659,-8.30891 9.875,-11.3125 -0.88159,-3.0036 -22.39493,-5.28421 -33.40625,-9.59375 z m 58.9375,38.21875 c 0,0 9.97462,9.30912 11.875,5.5625 1.90038,-3.74663 -11.875,-5.5625 -11.875,-5.5625 z m 19.875,1.09375 c 0,0 17.36355,7.55661 17.875,4.09375 0.51144,-3.46287 -17.875,-4.09375 -17.875,-4.09375 z M 247.012,98.98 c 0,0 5.69845,8.86564 7.71875,6.6875 C 256.75106,103.48936 247.012,98.98 247.012,98.98 z" id="blood" fill="#790000" />
    <path d="m 149.94279,18.87973 c 9.53481,1.83056 18.64054,2.99078 27.2994,10.53343 L 144.03684,49.7093 129.9509,36.555536 z" fill="#75af74" />
    <path d="m 176.60508,28.74548 -33.41104,20.61136 c 5.28977,2.18185 10.50726,4.94191 15.90337,6.27301 7.50155,-4.99474 13.69388,-6.80994 19.54227,-7.78986 3.5597,-7.28612 2.61825,-13.59372 -2.0346,-19.09451 z" fill="#3d5f3b" />
    <path d="m 81.98313,53.72368 c -4.58642,8.68384 -3.55919,28.08072 -17.42649,29.72118 4.26509,4.33611 10.08562,6.40248 20.26786,-0.625 4.71458,8.18104 34.76659,14.84986 34.82143,21.60714 4.26922,-3.87428 2.84347,-9.66752 -3.83929,-17.23214 l 12.94643,12.54464 0.47891,-8.18772 25.32465,-37.0355 -10.08929,-4.73213 7.94642,-3.52679 -15.37686,-1.99085 z" fill="#fbe48f" />
    <path d="m 81.98313,53.72368 c 4.81365,8.72875 14.9809,11.63472 25.21151,14.0016 5.58026,6.99721 12.32972,7.27155 18.80553,9.11937 l 4.19311,-3.92411 18.82076,-11.8078 -1.68956,-4.36431 -2.85714,-6.96428 c -2.99762,-0.81767 -4.66441,-2.39581 -4.3318,-5.11646 -18.5969,-2.24462 -36.27879,4.66097 -54.41818,6.99146 z" fill="#938246" />
    <path d="m 74.10003,87.36719 c 3.950742,-2.729134 7.810402,-5.06283 10.465674,-8.536187 14.4461,6.49765 32.680996,9.867627 35.080226,25.595997 -2.46787,-8.36389 -28.29324,-12.40944 -34.82143,-21.60714 -3.39351,2.649 -6.99468,4.00011 -10.72447,4.54733 z" fill="#938246" />
    <path d="m 85.79238,51.96411 c 6.94599,5.21848 14.57908,8.63331 22.87193,10.31629 l 12.53647,-37.14997 20.76848,11.11548 c -1.47302,-9.56069 -11.28754,-21.22234 -24.93117,-21.01184 -12.27533,0.1894 -31.4952,10.77794 -31.24571,36.73004 z" fill="#74ae74" />
    <path d="m 108.66431,62.2804 c 0,0 2.11708,-33.79994 10.14168,-38.107663 8.0246,-4.307723 23.16327,12.073173 23.16327,12.073173 l 0.89096,5.05609 -4.64286,1e-5 c -1.18046,2.9645 -8.45142,23.62906 -29.55305,20.97839 z" fill="#3d5f3b" />
    <path d="m 143.80736,24.6169 c 8.6409,-2.33099 18.11623,-1.487408 25.27792,9.675352 l -4.86002,2.636439 C 160.26128,29.806161 153.32645,25.34264 143.80736,24.6169 z" fill="#774c34" />
    <path d="m 168.56646,33.70453 -4.74506,2.92724 c 3.76415,5.41667 3.28318,10.03114 2.98456,14.74584 l 5.98564,-2.26029 c -0.28679,-5.08041 -0.18818,-9.8371 -4.22514,-15.41279 z" fill="#3b251a" />
    <path d="m 186.77136,27.62756 c 4.51668,4.047345 8.09471,7.551599 8.20339,13.23011 l -15.36889,5.941849 c 1.23859,-5.469321 2.04087,-8.628284 -0.61963,-15.074399 z" fill="#e2e2dd" />
    <path d="m 191.91299,32.35147 c -2.55881,1.75331 -5.08721,3.52944 -6.32851,6.27088 l -4.98216,-3.06299 c 1.05096,4.34664 -0.009,7.84891 -1.45464,11.19691 5.93747,0.60738 11.39994,-0.63245 15.82707,-5.8986 0.0502,-2.96138 -0.28597,-5.87729 -3.06176,-8.5062 z" fill="#82817f" />
    <path d="m 201.87319,19.61885 c 3.88977,0.74283 6.71059,4.839943 8.97966,7.365543 l -17.83606,6.584811 -6.91006,-6.494794 z" fill="#b14524" />
    <path d="m 191.91299,32.35147 c 2.67615,2.55895 3.04846,5.93102 2.88913,9.49073 3.71029,-2.49036 8.10192,-3.81272 9.59645,-10.10153 -2.96557,9.07247 3.15667,7.89369 3.15667,7.89369 10.69972,-0.045 2.53983,-13.99486 2.53983,-13.99486 z" fill="#5f2210" />
    <path d="m 167.39631,12.559094 -2.8842,4.43516 -9.41072,1.079816 -1.26338,-1.93121 c 0,0 6.49935,-8.701746 13.5583,-3.583766 z" fill="#b14524" />
    <path d="m 155.62714,16.9672 c 4.29161,-2.63393 6.65524,-1.330724 8.71651,-0.0822 l -2.26841,4.311739 -7.65701,-1.684375 z" fill="#e2e2dd" />
    <path d="m 164.17125,16.60407 -2.45726,4.55244 2.8265,0.79588 1.09347,-2.96488 z" fill="#82817f" />
    <path d="m 166.78341,12.07688 -2.61216,4.52719 1.46271,2.38344 c 3.00413,-2.49076 4.7511,-4.89172 1.14945,-6.91063 z" fill="#5f2210" />
    <path d="M 43.848892,69.99304 79.513274,58.682059 77.5358,68.78225 48.1406,80.85935 c 0,0 2.906152,-7.15539 -4.291708,-10.86631 z" fill="#3d5f3b" />
    <path d="m 81.98313,53.72368 c -16.07631,3.36726 -32.4813,6.2415 -45.96437,13.49861 l 8.33968,3.05405 35.02291,-11.10796 z" fill="#74ae74" />
    <path d="m 154.55663,54.51628 c 9.11301,2.41636 17.59807,5.00594 19.91617,9.29675 -0.73152,6.42337 -13.88527,15.23563 -20.8344,22.8547 -2.23325,-15.87743 -13.41638,-15.82887 -23.71511,-16.51851 1.23867,-6.65979 19.09075,-9.03648 19.09075,-9.03648 l -1.68956,-4.36431 z" fill="#b3c27d" />
    <path d="m 149.85972,56.25443 c 6.1359,15.34965 -12.8325,14.39174 -19.93643,13.89479 0.42984,-6.44469 19.09075,-9.03648 19.09075,-9.03648 l -1.68956,-4.36431 z" fill="#667041" />
    <path d="m 172.68033,61.67512 -23.71775,14.06167 c 3.28813,4.36327 3.90331,6.89471 4.67582,10.93094 8.59282,-9.017 25.97598,-20.71993 19.04193,-24.99261 z" fill="#667041" />
    <path d="m 129.50586,70.099843 c 19.95061,-2.04971 24.87072,11.949924 24.00578,17.284262 0,0 -23.72276,-9.603286 -24.00578,-17.284262 z" fill="#667041" />
    <path d="m 135.50606,70.092823 c 9.13753,5.895178 17.35983,12.538677 17.35983,12.538677 0,0 -5.95358,7.188382 -9.32901,11.35983 L 123.39464,82.71455 c -0.90776,-4.643793 10.7964,-13.470128 12.11142,-12.621727 z" fill="#f8d8b6" />
    <path d="m 130.19328,72.92054 c -0.0928,0.11044 26.85221,2.54153 8.86105,17.03018 0,0 0.64281,5.72775 4.48255,4.04061 l 9.32901,-11.35983 c -2.754,-4.60496 -2.4452,-9.74122 -16.21194,-12.4358 z" fill="#917b62" />
    <path d="m 139.05433,89.95072 c -0.25823,7.56061 -6.95545,-0.7377 -7.32361,-3.97747 3.20011,2.99381 -2.85564,11.6803 -4.98763,-0.37881 -0.17258,1.72576 -4.47823,4.20026 -3.34845,-2.87989 4.93571,1.89432 10.69079,4.25652 15.65969,7.23617 z" fill="#917b62" />
    <path d="m 38.71923,67.94421 c 3.8161,2.32202 8.77756,2.02609 10.44937,9.24936 -5.59785,11.81543 -28.76105,20.65638 -13.24678,5.13249 -12.39379,-4.85617 -21.42893,9.26795 -23.48124,7.92118 -0.076,-2.33926 2.98442,-8.56031 -1.8432,-6.18423 1.01633,-6.24374 13.29669,-14.65652 28.12185,-16.1188 z" fill="#f8d8b6" />
  </g>
  <g id="lines" fill="none" stroke="#000000" stroke-width="1px">
    <path d="m 153.51164,87.384105 -3.44292,-2.041533" />
    <path d="M 85.71736,51.65915 C 85.66666,9.79433 138.17625,0.95265 142.86022,41.302 c -6.25826,1.79921 -17.34681,-7.93297 -17.34681,-7.93297 l 12.70395,7.93298 c -12.16248,33.2195 -40.66132,20.0217 -52.5,10.35714 z" />
    <path d="m 149.01404,61.11274 -1.68956,-4.36431 7.23215,-2.23215 -10.08929,-4.73213 7.94642,-3.52679 -15.37686,-1.99085" />
    <path d="m 85.71736,51.65915 c -12.22442,2.497 -1.73369,28.44432 -21.16072,31.78571 5.52386,6.49974 12.61222,4.48163 20.26786,-0.625 7.89411,10.79945 32.79782,12.52443 34.82143,21.60714 7.04221,-6.27063 -3.83929,-17.23214 -3.83929,-17.23214 l 12.94643,12.54464 0.47891,-8.18772" />
    <path d="m 136.65395,70.1957 c -17.5312,4.38129 -14.40551,23.24104 -9.91086,15.39874 -0.0798,8.64646 8.72027,8.2399 4.98763,0.37881 2.64862,6.96947 7.93705,9.80686 7.32361,3.97747 0.005,2.99239 1.28146,4.58032 4.48255,4.04061 2.94846,-3.40569 5.21579,-8.05674 9.32901,-11.35983" />
    <path d="m 161.02514,61.47705 c -2.59636,-2.10606 -36.25561,0.46782 -30.83186,11.44349" />
    <path d="m 154.55663,54.51628 c 0,0 19.01198,4.4995 19.91617,9.29675 0.90419,4.79724 -13.97378,15.2996 -20.8344,22.8547 -1.1579,-11.64 -10.05331,-17.67005 -23.71511,-16.51851" />
    <path d="m 81.98313,53.72368 c -14.53004,2.5837 -31.23059,4.8301 -45.96437,13.49861 13.1625,3.1177 14.66421,8.73728 12.12184,13.63706 l 29.3952,-12.0771" />
    <path d="m 26.45209,79.24006 c -10.8196,1.19207 -15.53856,9.16336 -14.18855,10.84328 1.35001,1.67992 6.52775,-4.2107 11.2062,-7.01017 4.67844,-2.79948 10.15224,-2.1953 12.18368,-1.18649 2.03143,1.00881 -8.02282,5.46109 -4.13121,8.66289 3.89161,3.2018 17.64639,-13.356 17.64639,-13.356" />
    <path d="m 23.52803,77.46989 c 0,0 -6.4625,-0.75933 -8.65934,1.08505 -2.19683,1.84438 -1.27612,7.28472 -1.27612,7.28472" />
    <path d="m 38.71923,67.94421 c 0,0 -21.97642,2.27839 -27.85957,14.58821 -1.58411,3.31456 2.57789,0.81827 2.57789,0.81827" />
    <path d="m 159.09741,55.62985 c 0,0 9.19791,-6.44953 19.54227,-7.78986 7.89619,-15.98884 -4.6357,-26.1311 -28.69689,-28.96026 l -10.6698,9.9772" />
    <path d="m 143.80736,24.6169 c 18.84792,-6.03811 29.60489,11.16963 28.98424,24.50042 l -5.98564,2.26029 C 168.67499,38.68618 159.6177,25.21682 143.80736,24.6169 z" />
    <path d="m 201.87319,19.61885 c 10.83504,2.52414 12.08101,16.63461 10.42803,18.59723 -1.65298,1.96261 -7.60025,1.82541 -8.46955,0.0153 -0.86931,-1.8101 0.5669,-6.49071 0.5669,-6.49071 -1.53067,6.62403 -5.6419,8.20982 -9.59645,10.10153 1.45033,-6.561 -3.53658,-10.46874 -8.69539,-14.76779 z" />
    <path d="m 186.77136,27.62756 -7.78513,4.09756" />
    <path d="m 179.14768,46.75627 c 9.50652,1.32104 11.00046,-1.61786 15.82707,-5.8986" />
    <path d="m 164.54049,21.95239 1.09347,-2.96488 c -1.2642,-3.24243 -4.33688,-5.73087 -10.00682,-2.02031 l -1.20891,2.54516" />
    <path d="m 165.37935,19.67786 c 0,0 4.04729,-3.66086 3.47448,-5.26761 -0.57282,-1.60675 -4.13061,-4.45388 -7.51301,-3.81964 -3.3824,0.63424 -7.62382,4.88929 -7.54458,5.77681 0.0792,0.88752 1.30515,1.70665 1.30515,1.70665" />
  </g>
</svg>
